{
    "swagger": "2.0",
    "info": {
        "title": "Social Eye RESTful API docs",
        "description": "Base testing API url: `http://socialeye.reasei.co/api/v1`. We use `api_token` for general requests and `access_token` for authorize requests",
        "version": "1.0.0"
    },
    "host": "socialeye.reasei.co",
    "basePath": "/api/v1",
    "paths": {
        "/authorize_places": {
            "get": {
                "tags": [
                    "AuthorizePlace"
                ],
                "summary": "Get a listing of the authorize places.",
                "description": "Provide `api_token` in Header request",
                "produces": [
                    "application/json"
                ],
                "responses": {
                    "200": {
                        "description": "successful operation",
                        "schema": {
                            "properties": {
                                "success": {
                                    "type": "boolean"
                                },
                                "data": {
                                    "type": "array",
                                    "items": {
                                        "$ref": "#/definitions/AuthorizePlace"
                                    }
                                },
                                "message": {
                                    "type": "string"
                                }
                            },
                            "type": "object"
                        }
                    }
                }
            }
        },
        "/authorize_reports": {
            "get": {
                "tags": [
                    "AuthorizeReport"
                ],
                "summary": "Get a listing of the authorize reports.",
                "description": "Get a listing of the authorize reports.",
                "produces": [
                    "application/json"
                ],
                "parameters": [
                    {
                        "name": "api_token",
                        "in": "header",
                        "description": "api token of server",
                        "required": true,
                        "type": "string"
                    },
                    {
                        "name": "report_type_id",
                        "in": "formData",
                        "description": "report_type_id",
                        "required": false,
                        "type": "string"
                    }
                ],
                "responses": {
                    "200": {
                        "description": "successful operation",
                        "schema": {
                            "properties": {
                                "success": {
                                    "type": "boolean"
                                },
                                "data": {
                                    "type": "array",
                                    "items": {
                                        "$ref": "#/definitions/AuthorizeReport"
                                    }
                                },
                                "message": {
                                    "type": "string"
                                }
                            },
                            "type": "object"
                        }
                    }
                }
            }
        },
        "/file_upload": {
            "post": {
                "tags": [
                    "File"
                ],
                "summary": "A pre-upload a file (audio|image|video) to server",
                "description": "A pre-upload a file (audio|image|video) to server",
                "produces": [
                    "application/json"
                ],
                "parameters": [
                    {
                        "name": "api_token",
                        "in": "header",
                        "description": "Provide `api_token` in Header request.",
                        "required": false,
                        "type": "string"
                    },
                    {
                        "name": "file",
                        "in": "formData",
                        "description": "File to be upload.",
                        "required": true,
                        "type": "file"
                    }
                ],
                "responses": {
                    "200": {
                        "description": "A file was uploaded successfully.",
                        "schema": {
                            "properties": {
                                "success": {
                                    "type": "boolean"
                                },
                                "version": {
                                    "type": "string"
                                },
                                "data": {
                                    "type": "string"
                                },
                                "message": {
                                    "type": "string"
                                }
                            },
                            "type": "object"
                        }
                    },
                    "400": {
                        "description": "Field `file` is required."
                    }
                }
            }
        },
        "/authorization/login": {
            "post": {
                "tags": [
                    "Authorization"
                ],
                "summary": "Login",
                "description": "Login user into system",
                "produces": [
                    "application/json"
                ],
                "parameters": [
                    {
                        "name": "api_token",
                        "in": "header",
                        "description": "api token of server",
                        "required": true,
                        "type": "string"
                    },
                    {
                        "name": "email",
                        "in": "formData",
                        "description": "Reporter email",
                        "required": true,
                        "type": "string"
                    },
                    {
                        "name": "password",
                        "in": "formData",
                        "description": "Reporter password",
                        "required": true,
                        "type": "string"
                    }
                ],
                "responses": {
                    "200": {
                        "description": "Logged in successfully",
                        "schema": {
                            "properties": {
                                "success": {
                                    "type": "boolean"
                                },
                                "data": {
                                    "type": "array",
                                    "items": {
                                        "$ref": "#/definitions/Reporter"
                                    }
                                },
                                "message": {
                                    "type": "string"
                                }
                            },
                            "type": "object"
                        }
                    },
                    "400": {
                        "description": "Fields are required."
                    },
                    "401": {
                        "description": "Password is incorrect."
                    },
                    "404": {
                        "description": "Reporter was not found."
                    }
                }
            }
        },
        "/authorization/logout": {
            "post": {
                "tags": [
                    "Authorization"
                ],
                "summary": "Logout",
                "description": "Logout user into system",
                "produces": [
                    "application/json"
                ],
                "parameters": [
                    {
                        "name": "access_token",
                        "in": "header",
                        "description": "access token of server",
                        "required": true,
                        "type": "string"
                    }
                ],
                "responses": {
                    "200": {
                        "description": "Logout successfully",
                        "schema": {
                            "properties": {
                                "success": {
                                    "type": "boolean"
                                },
                                "data": {
                                    "type": "array",
                                    "items": {
                                        "$ref": "#/definitions/Reporter"
                                    }
                                },
                                "message": {
                                    "type": "string"
                                }
                            },
                            "type": "object"
                        }
                    },
                    "400": {
                        "description": "Fields are required."
                    },
                    "404": {
                        "description": "Reporter was not found."
                    }
                }
            }
        },
        "/authorization/check_user_session": {
            "post": {
                "tags": [
                    "Authorization"
                ],
                "summary": "Check whether user already logged in",
                "description": "Check whether user already logged in",
                "produces": [
                    "application/json"
                ],
                "parameters": [
                    {
                        "name": "access_token",
                        "in": "header",
                        "description": "access token of server",
                        "required": true,
                        "type": "string"
                    }
                ],
                "responses": {
                    "200": {
                        "description": "Already logged in.",
                        "schema": {
                            "properties": {
                                "success": {
                                    "type": "boolean"
                                },
                                "data": {
                                    "type": "array",
                                    "items": {
                                        "$ref": "#/definitions/Reporter"
                                    }
                                },
                                "message": {
                                    "type": "string"
                                }
                            },
                            "type": "object"
                        }
                    },
                    "400": {
                        "description": "Fields are required."
                    },
                    "422": {
                        "description": "Not yet log in."
                    }
                }
            }
        },
        "/authorization/send_reset_password_code": {
            "post": {
                "tags": [
                    "Authorization"
                ],
                "summary": "Send reset password code to email",
                "description": "Send reset password code to email",
                "produces": [
                    "application/json"
                ],
                "parameters": [
                    {
                        "name": "api_token",
                        "in": "header",
                        "description": "api token of server",
                        "required": true,
                        "type": "string"
                    },
                    {
                        "name": "email",
                        "in": "formData",
                        "description": "Reporter email",
                        "required": true,
                        "type": "string"
                    }
                ],
                "responses": {
                    "200": {
                        "description": "Reset password was sent to your email.",
                        "schema": {
                            "properties": {
                                "success": {
                                    "type": "boolean"
                                },
                                "data": {
                                    "type": "array",
                                    "items": {
                                        "$ref": "#/definitions/Reporter"
                                    }
                                },
                                "message": {
                                    "type": "string"
                                }
                            },
                            "type": "object"
                        }
                    },
                    "400": {
                        "description": "Fields are required."
                    },
                    "422": {
                        "description": "Email does not exist."
                    }
                }
            }
        },
        "/authorization/reset_password": {
            "post": {
                "tags": [
                    "Authorization"
                ],
                "summary": "Reset password",
                "description": "Reset password",
                "produces": [
                    "application/json"
                ],
                "parameters": [
                    {
                        "name": "api_token",
                        "in": "header",
                        "description": "api token of server",
                        "required": true,
                        "type": "string"
                    },
                    {
                        "name": "email",
                        "in": "formData",
                        "description": "Reporter email",
                        "required": true,
                        "type": "string"
                    },
                    {
                        "name": "verify_code",
                        "in": "formData",
                        "description": "Verify code",
                        "required": true,
                        "type": "string"
                    },
                    {
                        "name": "password",
                        "in": "formData",
                        "description": "new password",
                        "required": true,
                        "type": "string"
                    }
                ],
                "responses": {
                    "200": {
                        "description": "Reset password successfully",
                        "schema": {
                            "properties": {
                                "success": {
                                    "type": "boolean"
                                },
                                "data": {
                                    "type": "array",
                                    "items": {
                                        "$ref": "#/definitions/Reporter"
                                    }
                                },
                                "message": {
                                    "type": "string"
                                }
                            },
                            "type": "object"
                        }
                    },
                    "400": {
                        "description": "Fields are required."
                    },
                    "422": {
                        "description": "Reporter does not exist."
                    }
                }
            }
        },
        "/registers": {
            "post": {
                "tags": [
                    "Register"
                ],
                "summary": "Register new reporter",
                "description": "Register new reporter",
                "produces": [
                    "application/json"
                ],
                "parameters": [
                    {
                        "name": "api_token",
                        "in": "header",
                        "description": "API token of server",
                        "required": true,
                        "type": "string"
                    },
                    {
                        "name": "email",
                        "in": "formData",
                        "description": "Email for login",
                        "required": true,
                        "type": "string"
                    },
                    {
                        "name": "password",
                        "in": "formData",
                        "description": "Password for login",
                        "required": true,
                        "type": "string"
                    },
                    {
                        "name": "address",
                        "in": "formData",
                        "description": "User territory address",
                        "required": true,
                        "type": "string"
                    },
                    {
                        "name": "birth_date",
                        "in": "formData",
                        "description": "Date of birth of user. Ex: yyyy.mm.dd",
                        "required": true,
                        "type": "string"
                    },
                    {
                        "name": "sex",
                        "in": "formData",
                        "description": "Gender of user: Other, M, F",
                        "required": true,
                        "type": "string"
                    }
                ],
                "responses": {
                    "200": {
                        "description": "successful registration",
                        "schema": {
                            "properties": {
                                "success": {
                                    "type": "boolean"
                                },
                                "data": {
                                    "type": "array",
                                    "items": {
                                        "$ref": "#/definitions/Reporter"
                                    }
                                },
                                "message": {
                                    "type": "string"
                                }
                            },
                            "type": "object"
                        }
                    },
                    "400": {
                        "description": "Fields are required. OR Email is invalid."
                    },
                    "422": {
                        "description": "Email already existed."
                    }
                }
            }
        },
        "/registers/verify_code": {
            "post": {
                "tags": [
                    "Register"
                ],
                "summary": "Verify code",
                "description": "Verify code after registration",
                "produces": [
                    "application/json"
                ],
                "parameters": [
                    {
                        "name": "api_token",
                        "in": "header",
                        "description": "API token of server",
                        "required": true,
                        "type": "string"
                    },
                    {
                        "name": "reporter_id",
                        "in": "formData",
                        "description": "Registered reporter id",
                        "required": true,
                        "type": "integer"
                    },
                    {
                        "name": "verify_code",
                        "in": "formData",
                        "description": "sent verification code",
                        "required": true,
                        "type": "string"
                    }
                ],
                "responses": {
                    "200": {
                        "description": "successful verification the code",
                        "schema": {
                            "properties": {
                                "success": {
                                    "type": "boolean"
                                },
                                "data": {
                                    "type": "array",
                                    "items": {
                                        "$ref": "#/definitions/Reporter"
                                    }
                                },
                                "message": {
                                    "type": "string"
                                }
                            },
                            "type": "object"
                        }
                    },
                    "400": {
                        "description": "Fields are required."
                    },
                    "304": {
                        "description": "Verify code is incorrect."
                    },
                    "404": {
                        "description": "Reporter was not found."
                    },
                    "422": {
                        "description": "Reporter was already activated."
                    }
                }
            }
        },
        "/reports/{reporterId}": {
            "get": {
                "tags": [
                    "Report"
                ],
                "summary": "Get all reports by reporter",
                "description": "Provide `access_token` in Header request",
                "produces": [
                    "application/json"
                ],
                "parameters": [
                    {
                        "name": "access_token",
                        "in": "header",
                        "description": "API token of server",
                        "required": true,
                        "type": "string"
                    },
                    {
                        "name": "limit",
                        "in": "formData",
                        "description": "Limit number of reports per request",
                        "required": false,
                        "type": "string"
                    },
                    {
                        "name": "page[number]",
                        "in": "formData",
                        "description": "The page number of the pagination. Ex: page[number]=1, page[number]=2",
                        "required": false,
                        "type": "string"
                    }
                ],
                "responses": {
                    "200": {
                        "description": "Report list",
                        "schema": {
                            "properties": {
                                "success": {
                                    "type": "boolean"
                                },
                                "data": {
                                    "type": "array",
                                    "items": {
                                        "$ref": "#/definitions/Report"
                                    }
                                },
                                "message": {
                                    "type": "string"
                                }
                            },
                            "type": "object"
                        }
                    },
                    "400": {
                        "description": "Reporter is required."
                    },
                    "404": {
                        "description": "Reporter was not found."
                    }
                }
            }
        },
        "/reports": {
            "post": {
                "tags": [
                    "Report"
                ],
                "summary": "Store new report",
                "description": "Provide `access_token` in Header request",
                "produces": [
                    "application/json"
                ],
                "parameters": [
                    {
                        "name": "access_token",
                        "in": "header",
                        "description": "API token of server",
                        "required": true,
                        "type": "string"
                    },
                    {
                        "name": "reporter_id",
                        "in": "formData",
                        "description": "Registered reporter id",
                        "required": true,
                        "type": "integer"
                    },
                    {
                        "name": "report_type_id",
                        "in": "formData",
                        "description": "Report type id",
                        "required": true,
                        "type": "integer"
                    },
                    {
                        "name": "authorize_reports",
                        "in": "formData",
                        "description": "Separate by camma. Ex: 1,2,3",
                        "required": true,
                        "type": "string"
                    },
                    {
                        "name": "audio",
                        "in": "formData",
                        "description": "Reporting audio. Audio file path from the pre-upload request",
                        "required": true,
                        "type": "string"
                    },
                    {
                        "name": "image",
                        "in": "formData",
                        "description": "Reporting image. Image file path from the pre-upload request",
                        "required": true,
                        "type": "string"
                    },
                    {
                        "name": "description",
                        "in": "formData",
                        "description": "Reporting description. Provide empty string if nothing written",
                        "required": true,
                        "type": "string"
                    }
                ],
                "responses": {
                    "200": {
                        "description": "Report was retrieved successfully.",
                        "schema": {
                            "properties": {
                                "success": {
                                    "type": "boolean"
                                },
                                "data": {
                                    "type": "array",
                                    "items": {
                                        "$ref": "#/definitions/Report"
                                    }
                                },
                                "message": {
                                    "type": "string"
                                }
                            },
                            "type": "object"
                        }
                    },
                    "400": {
                        "description": "Fields are required."
                    },
                    "404": {
                        "description": "Reporter was not found."
                    },
                    "422": {
                        "description": "There is no default report status. OR Report does not found."
                    }
                }
            },
            "delete": {
                "tags": [
                    "Report"
                ],
                "summary": "Delete report by reporter",
                "description": "Delete report by reporter",
                "produces": [
                    "application/json"
                ],
                "parameters": [
                    {
                        "name": "access_token",
                        "in": "header",
                        "description": "Access token",
                        "required": true,
                        "type": "string"
                    },
                    {
                        "name": "reporter_id",
                        "in": "formData",
                        "description": "Reporter id",
                        "required": true,
                        "type": "integer"
                    },
                    {
                        "name": "report_id",
                        "in": "formData",
                        "description": "Report id",
                        "required": true,
                        "type": "integer"
                    },
                    {
                        "name": "delete_reason",
                        "in": "formData",
                        "description": "Tell why you want to delete this report",
                        "required": true,
                        "type": "string"
                    }
                ],
                "responses": {
                    "200": {
                        "description": "Report was deleted successfully",
                        "schema": {
                            "properties": {
                                "success": {
                                    "type": "boolean"
                                },
                                "data": {
                                    "type": "array",
                                    "items": {
                                        "properties": {
                                            "reporter_id": {
                                                "type": "integer"
                                            },
                                            "report_id": {
                                                "type": "integer"
                                            }
                                        }
                                    }
                                },
                                "message": {
                                    "type": "string"
                                }
                            },
                            "type": "object"
                        }
                    },
                    "400": {
                        "description": "Fields are required."
                    },
                    "404": {
                        "description": "Reporter was not found."
                    }
                }
            }
        },
        "/report_types": {
            "get": {
                "tags": [
                    "ReportType"
                ],
                "summary": "Get a listing of the report type.",
                "description": "Provide `api_token` in Header request",
                "produces": [
                    "application/json"
                ],
                "responses": {
                    "200": {
                        "description": "successful operation",
                        "schema": {
                            "properties": {
                                "success": {
                                    "type": "boolean"
                                },
                                "data": {
                                    "type": "array",
                                    "items": {
                                        "$ref": "#/definitions/ReportType"
                                    }
                                },
                                "message": {
                                    "type": "string"
                                }
                            },
                            "type": "object"
                        }
                    }
                }
            }
        },
        "/reporters/{id}/update_credential": {
            "put": {
                "tags": [
                    "Reporter"
                ],
                "summary": "Update reporter credential",
                "description": "Update reporter credential",
                "produces": [
                    "application/json"
                ],
                "parameters": [
                    {
                        "name": "access_token",
                        "in": "header",
                        "description": "Access token",
                        "required": true,
                        "type": "string"
                    },
                    {
                        "name": "password",
                        "in": "formData",
                        "description": "Reporter new password",
                        "required": true,
                        "type": "string"
                    },
                    {
                        "name": "confirm_password",
                        "in": "formData",
                        "description": "Reporter confirm_password",
                        "required": true,
                        "type": "string"
                    }
                ],
                "responses": {
                    "200": {
                        "description": "Credential was updated successfully.",
                        "schema": {
                            "properties": {
                                "success": {
                                    "type": "boolean"
                                },
                                "data": {
                                    "type": "array",
                                    "items": {
                                        "$ref": "#/definitions/Reporter"
                                    }
                                },
                                "message": {
                                    "type": "string"
                                }
                            },
                            "type": "object"
                        }
                    },
                    "400": {
                        "description": "Fields are required."
                    },
                    "404": {
                        "description": "Reporter was not found."
                    }
                }
            }
        },
        "/reporters/{id}/update_info": {
            "put": {
                "tags": [
                    "Reporter"
                ],
                "summary": "Update reporter basic information",
                "description": "Update reporter basic information",
                "produces": [
                    "application/json"
                ],
                "parameters": [
                    {
                        "name": "access_token",
                        "in": "header",
                        "description": "Access token",
                        "required": true,
                        "type": "string"
                    },
                    {
                        "name": "sex",
                        "in": "formData",
                        "description": "Reporter sex",
                        "required": true,
                        "type": "string"
                    },
                    {
                        "name": "birth_date",
                        "in": "formData",
                        "description": "Reporter birth date",
                        "required": true,
                        "type": "string"
                    },
                    {
                        "name": "address",
                        "in": "formData",
                        "description": "Reporter address",
                        "required": true,
                        "type": "string"
                    },
                    {
                        "name": "image",
                        "in": "formData",
                        "description": "Reporter image. Image file path from the pre-upload request",
                        "required": false,
                        "type": "string"
                    },
                    {
                        "name": "first_name",
                        "in": "formData",
                        "description": "Reporter first name",
                        "required": false,
                        "type": "string"
                    },
                    {
                        "name": "last_name",
                        "in": "formData",
                        "description": "Reporter last name",
                        "required": false,
                        "type": "string"
                    }
                ],
                "responses": {
                    "200": {
                        "description": "Basic information was updated successfully.",
                        "schema": {
                            "properties": {
                                "success": {
                                    "type": "boolean"
                                },
                                "data": {
                                    "type": "array",
                                    "items": {
                                        "$ref": "#/definitions/Reporter"
                                    }
                                },
                                "message": {
                                    "type": "string"
                                }
                            },
                            "type": "object"
                        }
                    },
                    "400": {
                        "description": "Fields are required."
                    },
                    "404": {
                        "description": "Reporter was not found."
                    }
                }
            }
        }
    },
    "definitions": {
        "AuthorizePlace": {
            "required": [
                "authorize_type_id",
                "name",
                "email",
                "contact_phone"
            ],
            "properties": {
                "id": {
                    "description": "id",
                    "type": "integer",
                    "format": "int32"
                },
                "authorize_type": {
                    "description": "authorize_type",
                    "$ref": "#/definitions/AuthorizeType"
                },
                "name": {
                    "description": "name",
                    "type": "string"
                },
                "email": {
                    "description": "email",
                    "type": "string"
                },
                "logo": {
                    "description": "logo",
                    "type": "string"
                },
                "contact_phone": {
                    "description": "contact_phone",
                    "type": "string"
                },
                "latitude": {
                    "description": "latitude",
                    "type": "integer",
                    "format": "int32"
                },
                "longitude": {
                    "description": "longitude",
                    "type": "integer",
                    "format": "int32"
                },
                "created_at": {
                    "description": "created_at",
                    "type": "string",
                    "format": "date-time"
                },
                "updated_at": {
                    "description": "updated_at",
                    "type": "string",
                    "format": "date-time"
                }
            }
        },
        "AuthorizeReport": {
            "required": [
                "authorize_place_id",
                "report_type_id"
            ],
            "properties": {
                "id": {
                    "description": "id",
                    "type": "integer",
                    "format": "int32"
                },
                "authorize_place": {
                    "description": "authorize_place",
                    "$ref": "#/definitions/AuthorizePlace"
                },
                "report_type": {
                    "description": "report_type",
                    "$ref": "#/definitions/AuthorizeType"
                }
            }
        },
        "AuthorizeType": {
            "required": [
                "name"
            ],
            "properties": {
                "id": {
                    "description": "id",
                    "type": "integer",
                    "format": "int32"
                },
                "name": {
                    "description": "name",
                    "type": "string"
                }
            }
        },
        "Report": {
            "required": [
                "reporter_id",
                "report_status_id"
            ],
            "properties": {
                "id": {
                    "description": "id",
                    "type": "integer",
                    "format": "int32"
                },
                "reporter": {
                    "description": "reporter",
                    "$ref": "#/definitions/Reporter"
                },
                "report_status": {
                    "description": "report_status",
                    "$ref": "#/definitions/ReportStatus"
                },
                "report_type": {
                    "description": "report_type",
                    "$ref": "#/definitions/ReportType"
                },
                "audio": {
                    "description": "audio",
                    "type": "string"
                },
                "image": {
                    "description": "image",
                    "type": "string"
                },
                "description": {
                    "description": "description",
                    "type": "string"
                },
                "created_at": {
                    "description": "created_at",
                    "type": "string",
                    "format": "date-time"
                },
                "updated_at": {
                    "description": "updated_at",
                    "type": "string",
                    "format": "date-time"
                }
            }
        },
        "ReportStatus": {
            "required": [
                "name"
            ],
            "properties": {
                "id": {
                    "description": "id",
                    "type": "integer",
                    "format": "int32"
                },
                "name": {
                    "description": "name",
                    "type": "string"
                }
            }
        },
        "ReportType": {
            "required": [
                "name",
                "image"
            ],
            "properties": {
                "id": {
                    "description": "id",
                    "type": "integer",
                    "format": "int32"
                },
                "name": {
                    "description": "name",
                    "type": "string"
                },
                "image": {
                    "description": "image",
                    "type": "string"
                }
            }
        },
        "Reporter": {
            "required": [
                ""
            ],
            "properties": {
                "id": {
                    "description": "id",
                    "type": "integer",
                    "format": "int32"
                },
                "email": {
                    "description": "email",
                    "type": "string"
                },
                "first_name": {
                    "description": "first_name",
                    "type": "string"
                },
                "last_name": {
                    "description": "last_name",
                    "type": "string"
                },
                "sex": {
                    "description": "sex",
                    "type": "string"
                },
                "birth_date": {
                    "description": "birth_date",
                    "type": "string",
                    "format": "date"
                },
                "address": {
                    "description": "address",
                    "type": "string"
                },
                "activate": {
                    "description": "activate",
                    "type": "int32"
                },
                "last_logged_in": {
                    "description": "last_logged_in",
                    "type": "string"
                },
                "image": {
                    "description": "image",
                    "type": "string"
                }
            }
        }
    }
}